"file","var","varlabel","most freq value","unique values","total obs","samp1","samp2","samp3","samp4","samp5",
"./114888/1970_data.dta","hh_electricity","hh_electricity","0","1569","5194","1218464","907878","194234","179538","165792",
"./114888/1970_data.dta","muni","muni","Bom Jesus","4946","5194","Óleo","Óbidos","Érico Cardoso","Ângulo","Áurea",
"./114888/1970_data.dta","scope","Scope","Regional","2","5194","Regional","Local",
"./114888/election_data.dta","outcome","","ELEITO","1","27387","ELEITO",
"./114888/election_data.dta","party_acron","","SD","38","27387","SD","REDE","PV","PTN","PTC",
"./114888/ws_data.dta","muni","Municipality","Santa Luzia","5134","44529","Óleo","Óbidos","Érico Cardoso","Ângulo","Áurea",
"./114888/ws_data.dta","water_hh","Number of Active Households with Water Connection","0","14522","44529","4448060","4360378","4255809","4159387","4061309",
"./114888/ws_data.dta","water_hh_meter","Number of Active Metered Households with Water Connection","0","13773","44529","4446352","4359117","4249046","4158158","4051705",
"./114888/ws_data.dta","length_water","Length of Water Network","10","13823","44529","20486.5","20221.76","20017.41","19655.72","19377.71",
"./114888/ws_data.dta","sewer_hh","Number of Active Households with Sewage Connection","0","8161","44529","3647147","3555389","3458835","3362722","3261609",
"./114888/ws_data.dta","length_sewer","Length of Sewage Network","0","6185","44529","109885","16443.84","16257.59","16079.54","15748.6",
"./114888/ws_data.dta","metro_area_name","Metropolitan Area Name","Região Metropolitana de Belo Horizonte","69","44529","Região Metropolitana do Vale do Rio Cuiabá","Região Metropolitana do Vale do Piancó","Região Metropolitana do Vale do Paraíba e Litoral Norte","Região Metropolitana do Vale do Paraíba","Região Metropolitana do Vale do Mamanguape",
"./114888/ws_data.dta","muni_pop","Total Municipality Population","4468","27793","44529","11376685","11316149","11253503","11037593","11016703",
"./114888/ws_data.dta","snis_scope","Scope (from SNIS)","Regional","5","44529","Regional","Microregional","Local - LPU","Local - LPR","Local - LEP",
"./114888/ws_data.dta","scope","Scope","Regional","2","44529","Regional","Local",
